## Interface: 1800
## Title: EraseREmote
## Notes: This mod will add many emotes
## Author: mdb(last changes)
## URL: 
## Version: 1.0
## Dependencies:
## OptionalDeps:
## RequiredDeps:
EraseREmote.xml
